Time 0
Waiting clients: (1,7,3,0); (2,12,2,0); (3,20,4,0); (4,24,3,0); 
Server1: Closed 0;
Server2: Closed 0;

Time 1
Waiting clients: (1,7,3,0); (2,12,2,0); (3,20,4,0); (4,24,3,0); 
Server1: Closed 0;
Server2: Closed 0;

Time 2
Waiting clients: (1,7,3,0); (2,12,2,0); (3,20,4,0); (4,24,3,0); 
Server1: Closed 0;
Server2: Closed 0;

Time 3
Waiting clients: (1,7,3,0); (2,12,2,0); (3,20,4,0); (4,24,3,0); 
Server1: Closed 0;
Server2: Closed 0;

Time 4
Waiting clients: (1,7,3,0); (2,12,2,0); (3,20,4,0); (4,24,3,0); 
Server1: Closed 0;
Server2: Closed 0;

Time 5
Waiting clients: (1,7,3,0); (2,12,2,0); (3,20,4,0); (4,24,3,0); 
Server1: Closed 0;
Server2: Closed 0;

Time 6
Waiting clients: (1,7,3,0); (2,12,2,0); (3,20,4,0); (4,24,3,0); 
Server1: Closed 0;
Server2: Closed 0;

Time 7
Waiting clients: (2,12,2,0); (3,20,4,0); (4,24,3,0); 
Server1: (1,7,3,3);  3;
Server2: Closed 0;

Time 8
Waiting clients: (2,12,2,0); (3,20,4,0); (4,24,3,0); 
Server1: (1,7,2,3);  2;
Server2: Closed 0;

Time 9
Waiting clients: (2,12,2,0); (3,20,4,0); (4,24,3,0); 
Server1: (1,7,1,3);  1;
Server2: Closed 0;

Time 10
Waiting clients: (2,12,2,0); (3,20,4,0); (4,24,3,0); 
Server1: Closed 0;
Server2: Closed 0;

Time 11
Waiting clients: (2,12,2,0); (3,20,4,0); (4,24,3,0); 
Server1: Closed 0;
Server2: Closed 0;

Time 12
Waiting clients: (3,20,4,0); (4,24,3,0); 
Server1: (2,12,2,2);  2;
Server2: Closed 0;

Time 13
Waiting clients: (3,20,4,0); (4,24,3,0); 
Server1: (2,12,1,2);  1;
Server2: Closed 0;

Time 14
Waiting clients: (3,20,4,0); (4,24,3,0); 
Server1: Closed 0;
Server2: Closed 0;

Time 15
Waiting clients: (3,20,4,0); (4,24,3,0); 
Server1: Closed 0;
Server2: Closed 0;

Time 16
Waiting clients: (3,20,4,0); (4,24,3,0); 
Server1: Closed 0;
Server2: Closed 0;

Time 17
Waiting clients: (3,20,4,0); (4,24,3,0); 
Server1: Closed 0;
Server2: Closed 0;

Time 18
Waiting clients: (3,20,4,0); (4,24,3,0); 
Server1: Closed 0;
Server2: Closed 0;

Time 19
Waiting clients: (3,20,4,0); (4,24,3,0); 
Server1: Closed 0;
Server2: Closed 0;

Time 20
Waiting clients: (4,24,3,0); 
Server1: (3,20,4,4);  4;
Server2: Closed 0;

Time 21
Waiting clients: (4,24,3,0); 
Server1: (3,20,3,4);  3;
Server2: Closed 0;

Time 22
Waiting clients: (4,24,3,0); 
Server1: (3,20,2,4);  2;
Server2: Closed 0;

Time 23
Waiting clients: (4,24,3,0); 
Server1: (3,20,1,4);  1;
Server2: Closed 0;

Time 24
Waiting clients: 
Server1: (4,24,3,3);  3;
Server2: Closed 0;

Time 25
Waiting clients: 
Server1: (4,24,2,3);  2;
Server2: Closed 0;

Time 26
Waiting clients: 
Server1: (4,24,1,3);  1;
Server2: Closed 0;

Time 27
Waiting clients: 
Server1: Closed 0;
Server2: Closed 0;

Average waiting time: 3.0